GSWEP4R Workshop - An R Package Engineering Workflow
…
$args
   n1    n2 mean1 mean2   sd1   sd2 
 "50"  "50"   "5"   "7"   "3"   "4" 

$data
# A tibble: 100 × 2
   group values
   <dbl>  <dbl>
 1     1  2.20 
 2     1  1.92 
 3     1  5.96 
 4     1  5.02 
 5     1  3.15 
 6     1  5.18 
 7     1  6.00 
 8     1  7.98 
 9     1  2.88 
10     1  0.336
# … with 90 more rows
…
